-------------------------------------------------------------------------------
Test set: com.albert.IOExceptionTest
-------------------------------------------------------------------------------
Tests run: 4, Failures: 0, Errors: 0, Skipped: 0, Time elapsed: 0.823 s - in com.albert.IOExceptionTest
